// Jest Snapshot v1, https://goo.gl/fbAQLP

exports[`<MediaButton /> renders the component 1`] = `
<div>
  <div
    class="root "
  >
    <label
      class="label "
      data-testid="test-label"
      for="input"
    >
      label
    </label>
    <input
      accept="jpg"
      class="root large primary"
      name="input"
      placeholder=""
      type="file"
      value=""
    />
  </div>
</div>
`;
