// Jest Snapshot v1, https://goo.gl/fbAQLP

exports[`<Popup /> renders the component when second button is not visible 1`] = `
<div>
  <div
    class="bg_modal"
  >
    <div
      class="modal_content"
    >
      <div
        class="body"
      />
      <div
        class="buttons"
      >
        <button
          class="root small btnSubmit"
          type="submit"
        >
          yes
        </button>
      </div>
    </div>
  </div>
</div>
`;

exports[`<Popup /> renders the component when visible=false 1`] = `<div />`;

exports[`<Popup /> renders the component when visible=true 1`] = `
<div>
  <div
    class="bg_modal"
  >
    <div
      class="modal_content"
    >
      <div
        class="body"
      />
      <div
        class="buttons"
      >
        <button
          class="root small btnSubmit"
          type="submit"
        >
          yes
        </button>
        <button
          class="root small btnExit"
          type="submit"
        >
          no
        </button>
      </div>
    </div>
  </div>
</div>
`;
