{
  "login-page-title": "Belépés",
  "project-title": "Interaktív térkép az Ukrán nyelvjárásokról",
  "map-page-title": "Térkép",
  "home-title": "Honlap",
  "sign-up-title": "Regisztrálj",
  "articles-page-title": "Cikkek",
  "vocabulary-page-title": "Szójegyzék",
  "word-page-title": "Szó",
  "style-sheet-title": "Stílusok",
  "email": "Email",
  "password": "Jelszó",
  "sign-in": "Beküldés",
  "required": "Kívánt",
  "invalid-email": "Érvénytelen e-mail",

  "name": "Név",
  "surname": "Vezetéknév",
  "sign-up-page-title": "Regisztrációs",
  "sign-up-error": "Regisztrációs hiba",
  "passwords-match": "A jelszavak nem egyeznek",
  "b-date": "Születési dátum",
  "submit-password": "Jelszó megerősítése",
  "sign-up": "Regisztrálj",
  "": ""
}
